<?xml version="1.0" encoding="UTF-8" standalone="no"?>
<!-- Created with Inkscape (http://www.inkscape.org/) -->

<svg
   xmlns:dc="http://purl.org/dc/elements/1.1/"
   xmlns:cc="http://creativecommons.org/ns#"
   xmlns:rdf="http://www.w3.org/1999/02/22-rdf-syntax-ns#"
   xmlns:svg="http://www.w3.org/2000/svg"
   xmlns="http://www.w3.org/2000/svg"
   xmlns:sodipodi="http://sodipodi.sourceforge.net/DTD/sodipodi-0.dtd"
   xmlns:inkscape="http://www.inkscape.org/namespaces/inkscape"
   width="1052.3622"
   height="744.09448"
   id="svg2"
   version="1.1"
   inkscape:version="0.91 r13725"
   sodipodi:docname="logo.svg"
   inkscape:export-filename="/home/tange/privat/parallel/doc/logo.png"
   inkscape:export-xdpi="300"
   inkscape:export-ydpi="300">
  <defs
     id="defs4">
    <marker
       inkscape:stockid="Arrow1Mend"
       orient="auto"
       refY="0"
       refX="0"
       id="Arrow1Mend"
       style="overflow:visible">
      <path
         id="path3832"
         d="M 0,0 5,-5 -12.5,0 5,5 0,0 z"
         style="fill-rule:evenodd;stroke:#000000;stroke-width:1pt;marker-start:none"
         transform="matrix(-0.4,0,0,-0.4,-4,0)"
         inkscape:connector-curvature="0" />
    </marker>
    <marker
       inkscape:stockid="Arrow1Lstart"
       orient="auto"
       refY="0"
       refX="0"
       id="Arrow1Lstart"
       style="overflow:visible">
      <path
         id="path3823"
         d="M 0,0 5,-5 -12.5,0 5,5 0,0 z"
         style="fill-rule:evenodd;stroke:#000000;stroke-width:1pt;marker-start:none"
         transform="matrix(0.8,0,0,0.8,10,0)"
         inkscape:connector-curvature="0" />
    </marker>
  </defs>
  <sodipodi:namedview
     id="base"
     pagecolor="#ffffff"
     bordercolor="#666666"
     borderopacity="1.0"
     inkscape:pageopacity="0.0"
     inkscape:pageshadow="2"
     inkscape:zoom="0.93338096"
     inkscape:cx="761.77981"
     inkscape:cy="327.26862"
     inkscape:document-units="px"
     inkscape:current-layer="layer1"
     showgrid="false"
     inkscape:snap-grids="true"
     inkscape:window-width="1920"
     inkscape:window-height="1003"
     inkscape:window-x="0"
     inkscape:window-y="0"
     inkscape:window-maximized="1">
    <inkscape:grid
       type="xygrid"
       id="grid4824"
       empspacing="5"
       visible="true"
       enabled="true"
       snapvisiblegridlinesonly="true" />
  </sodipodi:namedview>
  <metadata
     id="metadata7">
    <rdf:RDF>
      <cc:Work
         rdf:about="">
        <dc:format>image/svg+xml</dc:format>
        <dc:type
           rdf:resource="http://purl.org/dc/dcmitype/StillImage" />
        <dc:title></dc:title>
      </cc:Work>
    </rdf:RDF>
  </metadata>
  <g
     inkscape:label="Layer 1"
     inkscape:groupmode="layer"
     id="layer1"
     transform="translate(0,-308.2677)">
    <g
       id="g5102"
       transform="matrix(3.146453,0,0,3.146453,-527.88067,-298.57596)">
      <rect
         y="327.36218"
         x="200"
         height="15"
         width="20"
         id="rect4836"
         style="fill:#000000;fill-opacity:1;fill-rule:evenodd;stroke:#808080;stroke-width:1;stroke-linecap:square;stroke-linejoin:miter;stroke-miterlimit:0.30000001;stroke-dasharray:none;stroke-dashoffset:0;stroke-opacity:1" />
      <rect
         y="327.36218"
         x="240"
         height="15"
         width="20"
         id="rect4836-6"
         style="fill:#000000;fill-opacity:1;fill-rule:evenodd;stroke:#808080;stroke-width:1;stroke-linecap:square;stroke-linejoin:miter;stroke-miterlimit:0.30000001;stroke-dasharray:none;stroke-dashoffset:0;stroke-opacity:1" />
      <rect
         y="327.36218"
         x="280"
         height="15"
         width="20"
         id="rect4836-8"
         style="fill:#000000;fill-opacity:1;fill-rule:evenodd;stroke:#808080;stroke-width:1;stroke-linecap:square;stroke-linejoin:miter;stroke-miterlimit:0.30000001;stroke-dasharray:none;stroke-dashoffset:0;stroke-opacity:1" />
      <rect
         y="327.36218"
         x="320"
         height="15"
         width="20"
         id="rect4836-8-8"
         style="fill:#000000;fill-opacity:1;fill-rule:evenodd;stroke:#808080;stroke-width:1;stroke-linecap:square;stroke-linejoin:miter;stroke-miterlimit:0.30000001;stroke-dasharray:none;stroke-dashoffset:0;stroke-opacity:1" />
      <rect
         y="327.36218"
         x="360"
         height="15"
         width="20"
         id="rect4836-8-4"
         style="fill:#000000;fill-opacity:1;fill-rule:evenodd;stroke:#808080;stroke-width:1;stroke-linecap:square;stroke-linejoin:miter;stroke-miterlimit:0.30000001;stroke-dasharray:none;stroke-dashoffset:0;stroke-opacity:1" />
      <rect
         y="327.36218"
         x="400"
         height="15"
         width="20"
         id="rect4836-8-4-3"
         style="fill:#000000;fill-opacity:1;fill-rule:evenodd;stroke:#808080;stroke-width:1;stroke-linecap:square;stroke-linejoin:miter;stroke-miterlimit:0.30000001;stroke-dasharray:none;stroke-dashoffset:0;stroke-opacity:1" />
      <rect
         y="327.36218"
         x="440"
         height="15"
         width="20"
         id="rect4836-8-4-1"
         style="fill:#000000;fill-opacity:1;fill-rule:evenodd;stroke:#808080;stroke-width:1;stroke-linecap:square;stroke-linejoin:miter;stroke-miterlimit:0.30000001;stroke-dasharray:none;stroke-dashoffset:0;stroke-opacity:1" />
      <rect
         y="327.36218"
         x="220"
         height="15"
         width="20"
         id="rect4836-8-4-4"
         style="fill:#ffffff;fill-opacity:1;fill-rule:evenodd;stroke:#808080;stroke-width:1;stroke-linecap:square;stroke-linejoin:miter;stroke-miterlimit:0.30000001;stroke-dasharray:none;stroke-dashoffset:0;stroke-opacity:1" />
      <rect
         y="327.36218"
         x="260"
         height="15"
         width="20"
         id="rect4836-8-4-4-2"
         style="fill:#ffffff;fill-opacity:1;fill-rule:evenodd;stroke:#808080;stroke-width:1;stroke-linecap:square;stroke-linejoin:miter;stroke-miterlimit:0.30000001;stroke-dasharray:none;stroke-dashoffset:0;stroke-opacity:1" />
      <rect
         y="327.36218"
         x="300"
         height="15"
         width="20"
         id="rect4836-8-4-4-0"
         style="fill:#ffffff;fill-opacity:1;fill-rule:evenodd;stroke:#808080;stroke-width:1;stroke-linecap:square;stroke-linejoin:miter;stroke-miterlimit:0.30000001;stroke-dasharray:none;stroke-dashoffset:0;stroke-opacity:1" />
      <rect
         y="327.36218"
         x="340"
         height="15"
         width="20"
         id="rect4836-8-4-4-6"
         style="fill:#ffffff;fill-opacity:1;fill-rule:evenodd;stroke:#808080;stroke-width:1;stroke-linecap:square;stroke-linejoin:miter;stroke-miterlimit:0.30000001;stroke-dasharray:none;stroke-dashoffset:0;stroke-opacity:1" />
      <rect
         y="327.36218"
         x="380"
         height="15"
         width="20"
         id="rect4836-8-4-4-8"
         style="fill:#ffffff;fill-opacity:1;fill-rule:evenodd;stroke:#808080;stroke-width:1;stroke-linecap:square;stroke-linejoin:miter;stroke-miterlimit:0.30000001;stroke-dasharray:none;stroke-dashoffset:0;stroke-opacity:1" />
      <rect
         y="327.36218"
         x="420"
         height="15"
         width="20"
         id="rect4836-8-4-4-9"
         style="fill:#ffffff;fill-opacity:1;fill-rule:evenodd;stroke:#808080;stroke-width:1;stroke-linecap:square;stroke-linejoin:miter;stroke-miterlimit:0.30000001;stroke-dasharray:none;stroke-dashoffset:0;stroke-opacity:1" />
      <rect
         y="327.36218"
         x="460"
         height="15"
         width="20"
         id="rect4836-8-4-4-26"
         style="fill:#ffffff;fill-opacity:1;fill-rule:evenodd;stroke:#808080;stroke-width:1;stroke-linecap:square;stroke-linejoin:miter;stroke-miterlimit:0.30000001;stroke-dasharray:none;stroke-dashoffset:0;stroke-opacity:1" />
      <rect
         y="327.36218"
         x="180"
         height="15"
         width="20"
         id="rect4836-8-4-4-64"
         style="fill:#ffffff;fill-opacity:1;fill-rule:evenodd;stroke:#808080;stroke-width:1;stroke-linecap:square;stroke-linejoin:miter;stroke-miterlimit:0.30000001;stroke-dasharray:none;stroke-dashoffset:0;stroke-opacity:1" />
    </g>
    <g
       transform="matrix(3.146453,0,0,3.146453,-512.1484,-345.77276)"
       id="g5102-9">
      <rect
         y="327.36218"
         x="200"
         height="15"
         width="20"
         id="rect4836-5"
         style="fill:#000000;fill-opacity:1;fill-rule:evenodd;stroke:#808080;stroke-width:1;stroke-linecap:square;stroke-linejoin:miter;stroke-miterlimit:0.30000001;stroke-dasharray:none;stroke-dashoffset:0;stroke-opacity:1" />
      <rect
         y="327.36218"
         x="240"
         height="15"
         width="20"
         id="rect4836-6-0"
         style="fill:#000000;fill-opacity:1;fill-rule:evenodd;stroke:#808080;stroke-width:1;stroke-linecap:square;stroke-linejoin:miter;stroke-miterlimit:0.30000001;stroke-dasharray:none;stroke-dashoffset:0;stroke-opacity:1" />
      <rect
         y="327.36218"
         x="280"
         height="15"
         width="20"
         id="rect4836-8-48"
         style="fill:#000000;fill-opacity:1;fill-rule:evenodd;stroke:#808080;stroke-width:1;stroke-linecap:square;stroke-linejoin:miter;stroke-miterlimit:0.30000001;stroke-dasharray:none;stroke-dashoffset:0;stroke-opacity:1" />
      <rect
         y="327.36218"
         x="320"
         height="15"
         width="20"
         id="rect4836-8-8-7"
         style="fill:#000000;fill-opacity:1;fill-rule:evenodd;stroke:#808080;stroke-width:1;stroke-linecap:square;stroke-linejoin:miter;stroke-miterlimit:0.30000001;stroke-dasharray:none;stroke-dashoffset:0;stroke-opacity:1" />
      <rect
         y="327.36218"
         x="360"
         height="15"
         width="20"
         id="rect4836-8-4-17"
         style="fill:#000000;fill-opacity:1;fill-rule:evenodd;stroke:#808080;stroke-width:1;stroke-linecap:square;stroke-linejoin:miter;stroke-miterlimit:0.30000001;stroke-dasharray:none;stroke-dashoffset:0;stroke-opacity:1" />
      <rect
         y="327.36218"
         x="400"
         height="15"
         width="20"
         id="rect4836-8-4-3-2"
         style="fill:#000000;fill-opacity:1;fill-rule:evenodd;stroke:#808080;stroke-width:1;stroke-linecap:square;stroke-linejoin:miter;stroke-miterlimit:0.30000001;stroke-dasharray:none;stroke-dashoffset:0;stroke-opacity:1" />
      <rect
         y="327.36218"
         x="440"
         height="15"
         width="20"
         id="rect4836-8-4-1-7"
         style="fill:#000000;fill-opacity:1;fill-rule:evenodd;stroke:#808080;stroke-width:1;stroke-linecap:square;stroke-linejoin:miter;stroke-miterlimit:0.30000001;stroke-dasharray:none;stroke-dashoffset:0;stroke-opacity:1" />
      <rect
         y="327.36218"
         x="220"
         height="15"
         width="20"
         id="rect4836-8-4-4-22"
         style="fill:#ffffff;fill-opacity:1;fill-rule:evenodd;stroke:#808080;stroke-width:1;stroke-linecap:square;stroke-linejoin:miter;stroke-miterlimit:0.30000001;stroke-dasharray:none;stroke-dashoffset:0;stroke-opacity:1" />
      <rect
         y="327.36218"
         x="260"
         height="15"
         width="20"
         id="rect4836-8-4-4-2-6"
         style="fill:#ffffff;fill-opacity:1;fill-rule:evenodd;stroke:#808080;stroke-width:1;stroke-linecap:square;stroke-linejoin:miter;stroke-miterlimit:0.30000001;stroke-dasharray:none;stroke-dashoffset:0;stroke-opacity:1" />
      <rect
         y="327.36218"
         x="300"
         height="15"
         width="20"
         id="rect4836-8-4-4-0-1"
         style="fill:#ffffff;fill-opacity:1;fill-rule:evenodd;stroke:#808080;stroke-width:1;stroke-linecap:square;stroke-linejoin:miter;stroke-miterlimit:0.30000001;stroke-dasharray:none;stroke-dashoffset:0;stroke-opacity:1" />
      <rect
         y="327.36218"
         x="340"
         height="15"
         width="20"
         id="rect4836-8-4-4-6-0"
         style="fill:#ffffff;fill-opacity:1;fill-rule:evenodd;stroke:#808080;stroke-width:1;stroke-linecap:square;stroke-linejoin:miter;stroke-miterlimit:0.30000001;stroke-dasharray:none;stroke-dashoffset:0;stroke-opacity:1" />
      <rect
         y="327.36218"
         x="380"
         height="15"
         width="20"
         id="rect4836-8-4-4-8-6"
         style="fill:#ffffff;fill-opacity:1;fill-rule:evenodd;stroke:#808080;stroke-width:1;stroke-linecap:square;stroke-linejoin:miter;stroke-miterlimit:0.30000001;stroke-dasharray:none;stroke-dashoffset:0;stroke-opacity:1" />
      <rect
         y="327.36218"
         x="420"
         height="15"
         width="20"
         id="rect4836-8-4-4-9-1"
         style="fill:#ffffff;fill-opacity:1;fill-rule:evenodd;stroke:#808080;stroke-width:1;stroke-linecap:square;stroke-linejoin:miter;stroke-miterlimit:0.30000001;stroke-dasharray:none;stroke-dashoffset:0;stroke-opacity:1" />
      <rect
         y="327.36218"
         x="460"
         height="15"
         width="20"
         id="rect4836-8-4-4-26-5"
         style="fill:#ffffff;fill-opacity:1;fill-rule:evenodd;stroke:#808080;stroke-width:1;stroke-linecap:square;stroke-linejoin:miter;stroke-miterlimit:0.30000001;stroke-dasharray:none;stroke-dashoffset:0;stroke-opacity:1" />
      <rect
         y="327.36218"
         x="180"
         height="15"
         width="20"
         id="rect4836-8-4-4-64-9"
         style="fill:#ffffff;fill-opacity:1;fill-rule:evenodd;stroke:#808080;stroke-width:1;stroke-linecap:square;stroke-linejoin:miter;stroke-miterlimit:0.30000001;stroke-dasharray:none;stroke-dashoffset:0;stroke-opacity:1" />
    </g>
    <g
       transform="matrix(3.146453,0,0,3.146453,-496.41613,-392.96955)"
       id="g5102-4">
      <rect
         y="327.36218"
         x="200"
         height="15"
         width="20"
         id="rect4836-9"
         style="fill:#000000;fill-opacity:1;fill-rule:evenodd;stroke:#808080;stroke-width:1;stroke-linecap:square;stroke-linejoin:miter;stroke-miterlimit:0.30000001;stroke-dasharray:none;stroke-dashoffset:0;stroke-opacity:1" />
      <rect
         y="327.36218"
         x="240"
         height="15"
         width="20"
         id="rect4836-6-09"
         style="fill:#000000;fill-opacity:1;fill-rule:evenodd;stroke:#808080;stroke-width:1;stroke-linecap:square;stroke-linejoin:miter;stroke-miterlimit:0.30000001;stroke-dasharray:none;stroke-dashoffset:0;stroke-opacity:1" />
      <rect
         y="327.36218"
         x="280"
         height="15"
         width="20"
         id="rect4836-8-1"
         style="fill:#000000;fill-opacity:1;fill-rule:evenodd;stroke:#808080;stroke-width:1;stroke-linecap:square;stroke-linejoin:miter;stroke-miterlimit:0.30000001;stroke-dasharray:none;stroke-dashoffset:0;stroke-opacity:1" />
      <rect
         y="327.36218"
         x="320"
         height="15"
         width="20"
         id="rect4836-8-8-77"
         style="fill:#000000;fill-opacity:1;fill-rule:evenodd;stroke:#808080;stroke-width:1;stroke-linecap:square;stroke-linejoin:miter;stroke-miterlimit:0.30000001;stroke-dasharray:none;stroke-dashoffset:0;stroke-opacity:1" />
      <rect
         y="327.36218"
         x="360"
         height="15"
         width="20"
         id="rect4836-8-4-11"
         style="fill:#000000;fill-opacity:1;fill-rule:evenodd;stroke:#808080;stroke-width:1;stroke-linecap:square;stroke-linejoin:miter;stroke-miterlimit:0.30000001;stroke-dasharray:none;stroke-dashoffset:0;stroke-opacity:1" />
      <rect
         y="327.36218"
         x="400"
         height="15"
         width="20"
         id="rect4836-8-4-3-5"
         style="fill:#000000;fill-opacity:1;fill-rule:evenodd;stroke:#808080;stroke-width:1;stroke-linecap:square;stroke-linejoin:miter;stroke-miterlimit:0.30000001;stroke-dasharray:none;stroke-dashoffset:0;stroke-opacity:1" />
      <rect
         y="327.36218"
         x="440"
         height="15"
         width="20"
         id="rect4836-8-4-1-9"
         style="fill:#000000;fill-opacity:1;fill-rule:evenodd;stroke:#808080;stroke-width:1;stroke-linecap:square;stroke-linejoin:miter;stroke-miterlimit:0.30000001;stroke-dasharray:none;stroke-dashoffset:0;stroke-opacity:1" />
      <rect
         y="327.36218"
         x="220"
         height="15"
         width="20"
         id="rect4836-8-4-4-7"
         style="fill:#ffffff;fill-opacity:1;fill-rule:evenodd;stroke:#808080;stroke-width:1;stroke-linecap:square;stroke-linejoin:miter;stroke-miterlimit:0.30000001;stroke-dasharray:none;stroke-dashoffset:0;stroke-opacity:1" />
      <rect
         y="327.36218"
         x="260"
         height="15"
         width="20"
         id="rect4836-8-4-4-2-7"
         style="fill:#ffffff;fill-opacity:1;fill-rule:evenodd;stroke:#808080;stroke-width:1;stroke-linecap:square;stroke-linejoin:miter;stroke-miterlimit:0.30000001;stroke-dasharray:none;stroke-dashoffset:0;stroke-opacity:1" />
      <rect
         y="327.36218"
         x="300"
         height="15"
         width="20"
         id="rect4836-8-4-4-0-6"
         style="fill:#ffffff;fill-opacity:1;fill-rule:evenodd;stroke:#808080;stroke-width:1;stroke-linecap:square;stroke-linejoin:miter;stroke-miterlimit:0.30000001;stroke-dasharray:none;stroke-dashoffset:0;stroke-opacity:1" />
      <rect
         y="327.36218"
         x="340"
         height="15"
         width="20"
         id="rect4836-8-4-4-6-7"
         style="fill:#ffffff;fill-opacity:1;fill-rule:evenodd;stroke:#808080;stroke-width:1;stroke-linecap:square;stroke-linejoin:miter;stroke-miterlimit:0.30000001;stroke-dasharray:none;stroke-dashoffset:0;stroke-opacity:1" />
      <rect
         y="327.36218"
         x="380"
         height="15"
         width="20"
         id="rect4836-8-4-4-8-3"
         style="fill:#ffffff;fill-opacity:1;fill-rule:evenodd;stroke:#808080;stroke-width:1;stroke-linecap:square;stroke-linejoin:miter;stroke-miterlimit:0.30000001;stroke-dasharray:none;stroke-dashoffset:0;stroke-opacity:1" />
      <rect
         y="327.36218"
         x="420"
         height="15"
         width="20"
         id="rect4836-8-4-4-9-6"
         style="fill:#ffffff;fill-opacity:1;fill-rule:evenodd;stroke:#808080;stroke-width:1;stroke-linecap:square;stroke-linejoin:miter;stroke-miterlimit:0.30000001;stroke-dasharray:none;stroke-dashoffset:0;stroke-opacity:1" />
      <rect
         y="327.36218"
         x="460"
         height="15"
         width="20"
         id="rect4836-8-4-4-26-56"
         style="fill:#ffffff;fill-opacity:1;fill-rule:evenodd;stroke:#808080;stroke-width:1;stroke-linecap:square;stroke-linejoin:miter;stroke-miterlimit:0.30000001;stroke-dasharray:none;stroke-dashoffset:0;stroke-opacity:1" />
      <rect
         y="327.36218"
         x="180"
         height="15"
         width="20"
         id="rect4836-8-4-4-64-3"
         style="fill:#ffffff;fill-opacity:1;fill-rule:evenodd;stroke:#808080;stroke-width:1;stroke-linecap:square;stroke-linejoin:miter;stroke-miterlimit:0.30000001;stroke-dasharray:none;stroke-dashoffset:0;stroke-opacity:1" />
    </g>
    <g
       transform="matrix(3.146453,0,0,3.146453,-512.1484,-440.16635)"
       id="g5102-94">
      <rect
         y="327.36218"
         x="200"
         height="15"
         width="20"
         id="rect4836-81"
         style="fill:#000000;fill-opacity:1;fill-rule:evenodd;stroke:#808080;stroke-width:1;stroke-linecap:square;stroke-linejoin:miter;stroke-miterlimit:0.30000001;stroke-dasharray:none;stroke-dashoffset:0;stroke-opacity:1" />
      <rect
         y="327.36218"
         x="240"
         height="15"
         width="20"
         id="rect4836-6-2"
         style="fill:#000000;fill-opacity:1;fill-rule:evenodd;stroke:#808080;stroke-width:1;stroke-linecap:square;stroke-linejoin:miter;stroke-miterlimit:0.30000001;stroke-dasharray:none;stroke-dashoffset:0;stroke-opacity:1" />
      <rect
         y="327.36218"
         x="280"
         height="15"
         width="20"
         id="rect4836-8-9"
         style="fill:#000000;fill-opacity:1;fill-rule:evenodd;stroke:#808080;stroke-width:1;stroke-linecap:square;stroke-linejoin:miter;stroke-miterlimit:0.30000001;stroke-dasharray:none;stroke-dashoffset:0;stroke-opacity:1" />
      <rect
         y="327.36218"
         x="320"
         height="15"
         width="20"
         id="rect4836-8-8-3"
         style="fill:#000000;fill-opacity:1;fill-rule:evenodd;stroke:#808080;stroke-width:1;stroke-linecap:square;stroke-linejoin:miter;stroke-miterlimit:0.30000001;stroke-dasharray:none;stroke-dashoffset:0;stroke-opacity:1" />
      <rect
         y="327.36218"
         x="360"
         height="15"
         width="20"
         id="rect4836-8-4-9"
         style="fill:#000000;fill-opacity:1;fill-rule:evenodd;stroke:#808080;stroke-width:1;stroke-linecap:square;stroke-linejoin:miter;stroke-miterlimit:0.30000001;stroke-dasharray:none;stroke-dashoffset:0;stroke-opacity:1" />
      <rect
         y="327.36218"
         x="400"
         height="15"
         width="20"
         id="rect4836-8-4-3-0"
         style="fill:#000000;fill-opacity:1;fill-rule:evenodd;stroke:#808080;stroke-width:1;stroke-linecap:square;stroke-linejoin:miter;stroke-miterlimit:0.30000001;stroke-dasharray:none;stroke-dashoffset:0;stroke-opacity:1" />
      <rect
         y="327.36218"
         x="440"
         height="15"
         width="20"
         id="rect4836-8-4-1-8"
         style="fill:#000000;fill-opacity:1;fill-rule:evenodd;stroke:#808080;stroke-width:1;stroke-linecap:square;stroke-linejoin:miter;stroke-miterlimit:0.30000001;stroke-dasharray:none;stroke-dashoffset:0;stroke-opacity:1" />
      <rect
         y="327.36218"
         x="220"
         height="15"
         width="20"
         id="rect4836-8-4-4-85"
         style="fill:#ffffff;fill-opacity:1;fill-rule:evenodd;stroke:#808080;stroke-width:1;stroke-linecap:square;stroke-linejoin:miter;stroke-miterlimit:0.30000001;stroke-dasharray:none;stroke-dashoffset:0;stroke-opacity:1" />
      <rect
         y="327.36218"
         x="260"
         height="15"
         width="20"
         id="rect4836-8-4-4-2-0"
         style="fill:#ffffff;fill-opacity:1;fill-rule:evenodd;stroke:#808080;stroke-width:1;stroke-linecap:square;stroke-linejoin:miter;stroke-miterlimit:0.30000001;stroke-dasharray:none;stroke-dashoffset:0;stroke-opacity:1" />
      <rect
         y="327.36218"
         x="300"
         height="15"
         width="20"
         id="rect4836-8-4-4-0-9"
         style="fill:#ffffff;fill-opacity:1;fill-rule:evenodd;stroke:#808080;stroke-width:1;stroke-linecap:square;stroke-linejoin:miter;stroke-miterlimit:0.30000001;stroke-dasharray:none;stroke-dashoffset:0;stroke-opacity:1" />
      <rect
         y="327.36218"
         x="340"
         height="15"
         width="20"
         id="rect4836-8-4-4-6-6"
         style="fill:#ffffff;fill-opacity:1;fill-rule:evenodd;stroke:#808080;stroke-width:1;stroke-linecap:square;stroke-linejoin:miter;stroke-miterlimit:0.30000001;stroke-dasharray:none;stroke-dashoffset:0;stroke-opacity:1" />
      <rect
         y="327.36218"
         x="380"
         height="15"
         width="20"
         id="rect4836-8-4-4-8-38"
         style="fill:#ffffff;fill-opacity:1;fill-rule:evenodd;stroke:#808080;stroke-width:1;stroke-linecap:square;stroke-linejoin:miter;stroke-miterlimit:0.30000001;stroke-dasharray:none;stroke-dashoffset:0;stroke-opacity:1" />
      <rect
         y="327.36218"
         x="420"
         height="15"
         width="20"
         id="rect4836-8-4-4-9-5"
         style="fill:#ffffff;fill-opacity:1;fill-rule:evenodd;stroke:#808080;stroke-width:1;stroke-linecap:square;stroke-linejoin:miter;stroke-miterlimit:0.30000001;stroke-dasharray:none;stroke-dashoffset:0;stroke-opacity:1" />
      <rect
         y="327.36218"
         x="460"
         height="15"
         width="20"
         id="rect4836-8-4-4-26-6"
         style="fill:#ffffff;fill-opacity:1;fill-rule:evenodd;stroke:#808080;stroke-width:1;stroke-linecap:square;stroke-linejoin:miter;stroke-miterlimit:0.30000001;stroke-dasharray:none;stroke-dashoffset:0;stroke-opacity:1" />
      <rect
         y="327.36218"
         x="180"
         height="15"
         width="20"
         id="rect4836-8-4-4-64-1"
         style="fill:#ffffff;fill-opacity:1;fill-rule:evenodd;stroke:#808080;stroke-width:1;stroke-linecap:square;stroke-linejoin:miter;stroke-miterlimit:0.30000001;stroke-dasharray:none;stroke-dashoffset:0;stroke-opacity:1" />
    </g>
    <g
       id="g5102-1"
       transform="matrix(3.146453,0,0,3.146453,-527.88067,-487.36314)">
      <rect
         y="327.36218"
         x="200"
         height="15"
         width="20"
         id="rect4836-59"
         style="fill:#000000;fill-opacity:1;fill-rule:evenodd;stroke:#808080;stroke-width:1;stroke-linecap:square;stroke-linejoin:miter;stroke-miterlimit:0.30000001;stroke-dasharray:none;stroke-dashoffset:0;stroke-opacity:1" />
      <rect
         y="327.36218"
         x="240"
         height="15"
         width="20"
         id="rect4836-6-8"
         style="fill:#000000;fill-opacity:1;fill-rule:evenodd;stroke:#808080;stroke-width:1;stroke-linecap:square;stroke-linejoin:miter;stroke-miterlimit:0.30000001;stroke-dasharray:none;stroke-dashoffset:0;stroke-opacity:1" />
      <rect
         y="327.36218"
         x="280"
         height="15"
         width="20"
         id="rect4836-8-481"
         style="fill:#000000;fill-opacity:1;fill-rule:evenodd;stroke:#808080;stroke-width:1;stroke-linecap:square;stroke-linejoin:miter;stroke-miterlimit:0.30000001;stroke-dasharray:none;stroke-dashoffset:0;stroke-opacity:1" />
      <rect
         y="327.36218"
         x="320"
         height="15"
         width="20"
         id="rect4836-8-8-0"
         style="fill:#000000;fill-opacity:1;fill-rule:evenodd;stroke:#808080;stroke-width:1;stroke-linecap:square;stroke-linejoin:miter;stroke-miterlimit:0.30000001;stroke-dasharray:none;stroke-dashoffset:0;stroke-opacity:1" />
      <rect
         y="327.36218"
         x="360"
         height="15"
         width="20"
         id="rect4836-8-4-30"
         style="fill:#000000;fill-opacity:1;fill-rule:evenodd;stroke:#808080;stroke-width:1;stroke-linecap:square;stroke-linejoin:miter;stroke-miterlimit:0.30000001;stroke-dasharray:none;stroke-dashoffset:0;stroke-opacity:1" />
      <rect
         y="327.36218"
         x="400"
         height="15"
         width="20"
         id="rect4836-8-4-3-4"
         style="fill:#000000;fill-opacity:1;fill-rule:evenodd;stroke:#808080;stroke-width:1;stroke-linecap:square;stroke-linejoin:miter;stroke-miterlimit:0.30000001;stroke-dasharray:none;stroke-dashoffset:0;stroke-opacity:1" />
      <rect
         y="327.36218"
         x="440"
         height="15"
         width="20"
         id="rect4836-8-4-1-4"
         style="fill:#000000;fill-opacity:1;fill-rule:evenodd;stroke:#808080;stroke-width:1;stroke-linecap:square;stroke-linejoin:miter;stroke-miterlimit:0.30000001;stroke-dasharray:none;stroke-dashoffset:0;stroke-opacity:1" />
      <rect
         y="327.36218"
         x="220"
         height="15"
         width="20"
         id="rect4836-8-4-4-4"
         style="fill:#ffffff;fill-opacity:1;fill-rule:evenodd;stroke:#808080;stroke-width:1;stroke-linecap:square;stroke-linejoin:miter;stroke-miterlimit:0.30000001;stroke-dasharray:none;stroke-dashoffset:0;stroke-opacity:1" />
      <rect
         y="327.36218"
         x="260"
         height="15"
         width="20"
         id="rect4836-8-4-4-2-4"
         style="fill:#ffffff;fill-opacity:1;fill-rule:evenodd;stroke:#808080;stroke-width:1;stroke-linecap:square;stroke-linejoin:miter;stroke-miterlimit:0.30000001;stroke-dasharray:none;stroke-dashoffset:0;stroke-opacity:1" />
      <rect
         y="327.36218"
         x="300"
         height="15"
         width="20"
         id="rect4836-8-4-4-0-7"
         style="fill:#ffffff;fill-opacity:1;fill-rule:evenodd;stroke:#808080;stroke-width:1;stroke-linecap:square;stroke-linejoin:miter;stroke-miterlimit:0.30000001;stroke-dasharray:none;stroke-dashoffset:0;stroke-opacity:1" />
      <rect
         y="327.36218"
         x="340"
         height="15"
         width="20"
         id="rect4836-8-4-4-6-63"
         style="fill:#ffffff;fill-opacity:1;fill-rule:evenodd;stroke:#808080;stroke-width:1;stroke-linecap:square;stroke-linejoin:miter;stroke-miterlimit:0.30000001;stroke-dasharray:none;stroke-dashoffset:0;stroke-opacity:1" />
      <rect
         y="327.36218"
         x="380"
         height="15"
         width="20"
         id="rect4836-8-4-4-8-1"
         style="fill:#ffffff;fill-opacity:1;fill-rule:evenodd;stroke:#808080;stroke-width:1;stroke-linecap:square;stroke-linejoin:miter;stroke-miterlimit:0.30000001;stroke-dasharray:none;stroke-dashoffset:0;stroke-opacity:1" />
      <rect
         y="327.36218"
         x="420"
         height="15"
         width="20"
         id="rect4836-8-4-4-9-7"
         style="fill:#ffffff;fill-opacity:1;fill-rule:evenodd;stroke:#808080;stroke-width:1;stroke-linecap:square;stroke-linejoin:miter;stroke-miterlimit:0.30000001;stroke-dasharray:none;stroke-dashoffset:0;stroke-opacity:1" />
      <rect
         y="327.36218"
         x="460"
         height="15"
         width="20"
         id="rect4836-8-4-4-26-59"
         style="fill:#ffffff;fill-opacity:1;fill-rule:evenodd;stroke:#808080;stroke-width:1;stroke-linecap:square;stroke-linejoin:miter;stroke-miterlimit:0.30000001;stroke-dasharray:none;stroke-dashoffset:0;stroke-opacity:1" />
      <rect
         y="327.36218"
         x="180"
         height="15"
         width="20"
         id="rect4836-8-4-4-64-6"
         style="fill:#ffffff;fill-opacity:1;fill-rule:evenodd;stroke:#808080;stroke-width:1;stroke-linecap:square;stroke-linejoin:miter;stroke-miterlimit:0.30000001;stroke-dasharray:none;stroke-dashoffset:0;stroke-opacity:1" />
    </g>
    <g
       transform="matrix(3.146453,0,0,3.146453,-512.1484,-534.55994)"
       id="g5102-2">
      <rect
         y="327.36218"
         x="200"
         height="15"
         width="20"
         id="rect4836-1"
         style="fill:#000000;fill-opacity:1;fill-rule:evenodd;stroke:#808080;stroke-width:1;stroke-linecap:square;stroke-linejoin:miter;stroke-miterlimit:0.30000001;stroke-dasharray:none;stroke-dashoffset:0;stroke-opacity:1" />
      <rect
         y="327.36218"
         x="240"
         height="15"
         width="20"
         id="rect4836-6-7"
         style="fill:#000000;fill-opacity:1;fill-rule:evenodd;stroke:#808080;stroke-width:1;stroke-linecap:square;stroke-linejoin:miter;stroke-miterlimit:0.30000001;stroke-dasharray:none;stroke-dashoffset:0;stroke-opacity:1" />
      <rect
         y="327.36218"
         x="280"
         height="15"
         width="20"
         id="rect4836-8-85"
         style="fill:#000000;fill-opacity:1;fill-rule:evenodd;stroke:#808080;stroke-width:1;stroke-linecap:square;stroke-linejoin:miter;stroke-miterlimit:0.30000001;stroke-dasharray:none;stroke-dashoffset:0;stroke-opacity:1" />
      <rect
         y="327.36218"
         x="320"
         height="15"
         width="20"
         id="rect4836-8-8-74"
         style="fill:#000000;fill-opacity:1;fill-rule:evenodd;stroke:#808080;stroke-width:1;stroke-linecap:square;stroke-linejoin:miter;stroke-miterlimit:0.30000001;stroke-dasharray:none;stroke-dashoffset:0;stroke-opacity:1" />
      <rect
         y="327.36218"
         x="360"
         height="15"
         width="20"
         id="rect4836-8-4-18"
         style="fill:#000000;fill-opacity:1;fill-rule:evenodd;stroke:#808080;stroke-width:1;stroke-linecap:square;stroke-linejoin:miter;stroke-miterlimit:0.30000001;stroke-dasharray:none;stroke-dashoffset:0;stroke-opacity:1" />
      <rect
         y="327.36218"
         x="400"
         height="15"
         width="20"
         id="rect4836-8-4-3-59"
         style="fill:#000000;fill-opacity:1;fill-rule:evenodd;stroke:#808080;stroke-width:1;stroke-linecap:square;stroke-linejoin:miter;stroke-miterlimit:0.30000001;stroke-dasharray:none;stroke-dashoffset:0;stroke-opacity:1" />
      <rect
         y="327.36218"
         x="440"
         height="15"
         width="20"
         id="rect4836-8-4-1-75"
         style="fill:#000000;fill-opacity:1;fill-rule:evenodd;stroke:#808080;stroke-width:1;stroke-linecap:square;stroke-linejoin:miter;stroke-miterlimit:0.30000001;stroke-dasharray:none;stroke-dashoffset:0;stroke-opacity:1" />
      <rect
         y="327.36218"
         x="220"
         height="15"
         width="20"
         id="rect4836-8-4-4-3"
         style="fill:#ffffff;fill-opacity:1;fill-rule:evenodd;stroke:#808080;stroke-width:1;stroke-linecap:square;stroke-linejoin:miter;stroke-miterlimit:0.30000001;stroke-dasharray:none;stroke-dashoffset:0;stroke-opacity:1" />
      <rect
         y="327.36218"
         x="260"
         height="15"
         width="20"
         id="rect4836-8-4-4-2-8"
         style="fill:#ffffff;fill-opacity:1;fill-rule:evenodd;stroke:#808080;stroke-width:1;stroke-linecap:square;stroke-linejoin:miter;stroke-miterlimit:0.30000001;stroke-dasharray:none;stroke-dashoffset:0;stroke-opacity:1" />
      <rect
         y="327.36218"
         x="300"
         height="15"
         width="20"
         id="rect4836-8-4-4-0-8"
         style="fill:#ffffff;fill-opacity:1;fill-rule:evenodd;stroke:#808080;stroke-width:1;stroke-linecap:square;stroke-linejoin:miter;stroke-miterlimit:0.30000001;stroke-dasharray:none;stroke-dashoffset:0;stroke-opacity:1" />
      <rect
         y="327.36218"
         x="340"
         height="15"
         width="20"
         id="rect4836-8-4-4-6-3"
         style="fill:#ffffff;fill-opacity:1;fill-rule:evenodd;stroke:#808080;stroke-width:1;stroke-linecap:square;stroke-linejoin:miter;stroke-miterlimit:0.30000001;stroke-dasharray:none;stroke-dashoffset:0;stroke-opacity:1" />
      <rect
         y="327.36218"
         x="380"
         height="15"
         width="20"
         id="rect4836-8-4-4-8-18"
         style="fill:#ffffff;fill-opacity:1;fill-rule:evenodd;stroke:#808080;stroke-width:1;stroke-linecap:square;stroke-linejoin:miter;stroke-miterlimit:0.30000001;stroke-dasharray:none;stroke-dashoffset:0;stroke-opacity:1" />
      <rect
         y="327.36218"
         x="420"
         height="15"
         width="20"
         id="rect4836-8-4-4-9-9"
         style="fill:#ffffff;fill-opacity:1;fill-rule:evenodd;stroke:#808080;stroke-width:1;stroke-linecap:square;stroke-linejoin:miter;stroke-miterlimit:0.30000001;stroke-dasharray:none;stroke-dashoffset:0;stroke-opacity:1" />
      <rect
         y="327.36218"
         x="460"
         height="15"
         width="20"
         id="rect4836-8-4-4-26-64"
         style="fill:#ffffff;fill-opacity:1;fill-rule:evenodd;stroke:#808080;stroke-width:1;stroke-linecap:square;stroke-linejoin:miter;stroke-miterlimit:0.30000001;stroke-dasharray:none;stroke-dashoffset:0;stroke-opacity:1" />
      <rect
         y="327.36218"
         x="180"
         height="15"
         width="20"
         id="rect4836-8-4-4-64-33"
         style="fill:#ffffff;fill-opacity:1;fill-rule:evenodd;stroke:#808080;stroke-width:1;stroke-linecap:square;stroke-linejoin:miter;stroke-miterlimit:0.30000001;stroke-dasharray:none;stroke-dashoffset:0;stroke-opacity:1" />
    </g>
    <g
       transform="matrix(3.146453,0,0,3.146453,-496.41613,-581.75673)"
       id="g5102-3">
      <rect
         y="327.36218"
         x="200"
         height="15"
         width="20"
         id="rect4836-86"
         style="fill:#000000;fill-opacity:1;fill-rule:evenodd;stroke:#808080;stroke-width:1;stroke-linecap:square;stroke-linejoin:miter;stroke-miterlimit:0.30000001;stroke-dasharray:none;stroke-dashoffset:0;stroke-opacity:1" />
      <rect
         y="327.36218"
         x="240"
         height="15"
         width="20"
         id="rect4836-6-04"
         style="fill:#000000;fill-opacity:1;fill-rule:evenodd;stroke:#808080;stroke-width:1;stroke-linecap:square;stroke-linejoin:miter;stroke-miterlimit:0.30000001;stroke-dasharray:none;stroke-dashoffset:0;stroke-opacity:1" />
      <rect
         y="327.36218"
         x="280"
         height="15"
         width="20"
         id="rect4836-8-88"
         style="fill:#000000;fill-opacity:1;fill-rule:evenodd;stroke:#808080;stroke-width:1;stroke-linecap:square;stroke-linejoin:miter;stroke-miterlimit:0.30000001;stroke-dasharray:none;stroke-dashoffset:0;stroke-opacity:1" />
      <rect
         y="327.36218"
         x="320"
         height="15"
         width="20"
         id="rect4836-8-8-8"
         style="fill:#000000;fill-opacity:1;fill-rule:evenodd;stroke:#808080;stroke-width:1;stroke-linecap:square;stroke-linejoin:miter;stroke-miterlimit:0.30000001;stroke-dasharray:none;stroke-dashoffset:0;stroke-opacity:1" />
      <rect
         y="327.36218"
         x="360"
         height="15"
         width="20"
         id="rect4836-8-4-97"
         style="fill:#000000;fill-opacity:1;fill-rule:evenodd;stroke:#808080;stroke-width:1;stroke-linecap:square;stroke-linejoin:miter;stroke-miterlimit:0.30000001;stroke-dasharray:none;stroke-dashoffset:0;stroke-opacity:1" />
      <rect
         y="327.36218"
         x="400"
         height="15"
         width="20"
         id="rect4836-8-4-3-7"
         style="fill:#000000;fill-opacity:1;fill-rule:evenodd;stroke:#808080;stroke-width:1;stroke-linecap:square;stroke-linejoin:miter;stroke-miterlimit:0.30000001;stroke-dasharray:none;stroke-dashoffset:0;stroke-opacity:1" />
      <rect
         y="327.36218"
         x="440"
         height="15"
         width="20"
         id="rect4836-8-4-1-6"
         style="fill:#000000;fill-opacity:1;fill-rule:evenodd;stroke:#808080;stroke-width:1;stroke-linecap:square;stroke-linejoin:miter;stroke-miterlimit:0.30000001;stroke-dasharray:none;stroke-dashoffset:0;stroke-opacity:1" />
      <rect
         y="327.36218"
         x="220"
         height="15"
         width="20"
         id="rect4836-8-4-4-43"
         style="fill:#ffffff;fill-opacity:1;fill-rule:evenodd;stroke:#808080;stroke-width:1;stroke-linecap:square;stroke-linejoin:miter;stroke-miterlimit:0.30000001;stroke-dasharray:none;stroke-dashoffset:0;stroke-opacity:1" />
      <rect
         y="327.36218"
         x="260"
         height="15"
         width="20"
         id="rect4836-8-4-4-2-03"
         style="fill:#ffffff;fill-opacity:1;fill-rule:evenodd;stroke:#808080;stroke-width:1;stroke-linecap:square;stroke-linejoin:miter;stroke-miterlimit:0.30000001;stroke-dasharray:none;stroke-dashoffset:0;stroke-opacity:1" />
      <rect
         y="327.36218"
         x="300"
         height="15"
         width="20"
         id="rect4836-8-4-4-0-0"
         style="fill:#ffffff;fill-opacity:1;fill-rule:evenodd;stroke:#808080;stroke-width:1;stroke-linecap:square;stroke-linejoin:miter;stroke-miterlimit:0.30000001;stroke-dasharray:none;stroke-dashoffset:0;stroke-opacity:1" />
      <rect
         y="327.36218"
         x="340"
         height="15"
         width="20"
         id="rect4836-8-4-4-6-9"
         style="fill:#ffffff;fill-opacity:1;fill-rule:evenodd;stroke:#808080;stroke-width:1;stroke-linecap:square;stroke-linejoin:miter;stroke-miterlimit:0.30000001;stroke-dasharray:none;stroke-dashoffset:0;stroke-opacity:1" />
      <rect
         y="327.36218"
         x="380"
         height="15"
         width="20"
         id="rect4836-8-4-4-8-2"
         style="fill:#ffffff;fill-opacity:1;fill-rule:evenodd;stroke:#808080;stroke-width:1;stroke-linecap:square;stroke-linejoin:miter;stroke-miterlimit:0.30000001;stroke-dasharray:none;stroke-dashoffset:0;stroke-opacity:1" />
      <rect
         y="327.36218"
         x="420"
         height="15"
         width="20"
         id="rect4836-8-4-4-9-54"
         style="fill:#ffffff;fill-opacity:1;fill-rule:evenodd;stroke:#808080;stroke-width:1;stroke-linecap:square;stroke-linejoin:miter;stroke-miterlimit:0.30000001;stroke-dasharray:none;stroke-dashoffset:0;stroke-opacity:1" />
      <rect
         y="327.36218"
         x="460"
         height="15"
         width="20"
         id="rect4836-8-4-4-26-0"
         style="fill:#ffffff;fill-opacity:1;fill-rule:evenodd;stroke:#808080;stroke-width:1;stroke-linecap:square;stroke-linejoin:miter;stroke-miterlimit:0.30000001;stroke-dasharray:none;stroke-dashoffset:0;stroke-opacity:1" />
      <rect
         y="327.36218"
         x="180"
         height="15"
         width="20"
         id="rect4836-8-4-4-64-5"
         style="fill:#ffffff;fill-opacity:1;fill-rule:evenodd;stroke:#808080;stroke-width:1;stroke-linecap:square;stroke-linejoin:miter;stroke-miterlimit:0.30000001;stroke-dasharray:none;stroke-dashoffset:0;stroke-opacity:1" />
    </g>
    <g
       transform="matrix(3.146453,0,0,3.146453,-512.1484,-628.95353)"
       id="g5102-946">
      <rect
         y="327.36218"
         x="200"
         height="15"
         width="20"
         id="rect4836-92"
         style="fill:#000000;fill-opacity:1;fill-rule:evenodd;stroke:#808080;stroke-width:1;stroke-linecap:square;stroke-linejoin:miter;stroke-miterlimit:0.30000001;stroke-dasharray:none;stroke-dashoffset:0;stroke-opacity:1" />
      <rect
         y="327.36218"
         x="240"
         height="15"
         width="20"
         id="rect4836-6-24"
         style="fill:#000000;fill-opacity:1;fill-rule:evenodd;stroke:#808080;stroke-width:1;stroke-linecap:square;stroke-linejoin:miter;stroke-miterlimit:0.30000001;stroke-dasharray:none;stroke-dashoffset:0;stroke-opacity:1" />
      <rect
         y="327.36218"
         x="280"
         height="15"
         width="20"
         id="rect4836-8-7"
         style="fill:#000000;fill-opacity:1;fill-rule:evenodd;stroke:#808080;stroke-width:1;stroke-linecap:square;stroke-linejoin:miter;stroke-miterlimit:0.30000001;stroke-dasharray:none;stroke-dashoffset:0;stroke-opacity:1" />
      <rect
         y="327.36218"
         x="320"
         height="15"
         width="20"
         id="rect4836-8-8-75"
         style="fill:#000000;fill-opacity:1;fill-rule:evenodd;stroke:#808080;stroke-width:1;stroke-linecap:square;stroke-linejoin:miter;stroke-miterlimit:0.30000001;stroke-dasharray:none;stroke-dashoffset:0;stroke-opacity:1" />
      <rect
         y="327.36218"
         x="360"
         height="15"
         width="20"
         id="rect4836-8-4-48"
         style="fill:#000000;fill-opacity:1;fill-rule:evenodd;stroke:#808080;stroke-width:1;stroke-linecap:square;stroke-linejoin:miter;stroke-miterlimit:0.30000001;stroke-dasharray:none;stroke-dashoffset:0;stroke-opacity:1" />
      <rect
         y="327.36218"
         x="400"
         height="15"
         width="20"
         id="rect4836-8-4-3-1"
         style="fill:#000000;fill-opacity:1;fill-rule:evenodd;stroke:#808080;stroke-width:1;stroke-linecap:square;stroke-linejoin:miter;stroke-miterlimit:0.30000001;stroke-dasharray:none;stroke-dashoffset:0;stroke-opacity:1" />
      <rect
         y="327.36218"
         x="440"
         height="15"
         width="20"
         id="rect4836-8-4-1-2"
         style="fill:#000000;fill-opacity:1;fill-rule:evenodd;stroke:#808080;stroke-width:1;stroke-linecap:square;stroke-linejoin:miter;stroke-miterlimit:0.30000001;stroke-dasharray:none;stroke-dashoffset:0;stroke-opacity:1" />
      <rect
         y="327.36218"
         x="220"
         height="15"
         width="20"
         id="rect4836-8-4-4-89"
         style="fill:#ffffff;fill-opacity:1;fill-rule:evenodd;stroke:#808080;stroke-width:1;stroke-linecap:square;stroke-linejoin:miter;stroke-miterlimit:0.30000001;stroke-dasharray:none;stroke-dashoffset:0;stroke-opacity:1" />
      <rect
         y="327.36218"
         x="260"
         height="15"
         width="20"
         id="rect4836-8-4-4-2-3"
         style="fill:#ffffff;fill-opacity:1;fill-rule:evenodd;stroke:#808080;stroke-width:1;stroke-linecap:square;stroke-linejoin:miter;stroke-miterlimit:0.30000001;stroke-dasharray:none;stroke-dashoffset:0;stroke-opacity:1" />
      <rect
         y="327.36218"
         x="300"
         height="15"
         width="20"
         id="rect4836-8-4-4-0-68"
         style="fill:#ffffff;fill-opacity:1;fill-rule:evenodd;stroke:#808080;stroke-width:1;stroke-linecap:square;stroke-linejoin:miter;stroke-miterlimit:0.30000001;stroke-dasharray:none;stroke-dashoffset:0;stroke-opacity:1" />
      <rect
         y="327.36218"
         x="340"
         height="15"
         width="20"
         id="rect4836-8-4-4-6-02"
         style="fill:#ffffff;fill-opacity:1;fill-rule:evenodd;stroke:#808080;stroke-width:1;stroke-linecap:square;stroke-linejoin:miter;stroke-miterlimit:0.30000001;stroke-dasharray:none;stroke-dashoffset:0;stroke-opacity:1" />
      <rect
         y="327.36218"
         x="380"
         height="15"
         width="20"
         id="rect4836-8-4-4-8-10"
         style="fill:#ffffff;fill-opacity:1;fill-rule:evenodd;stroke:#808080;stroke-width:1;stroke-linecap:square;stroke-linejoin:miter;stroke-miterlimit:0.30000001;stroke-dasharray:none;stroke-dashoffset:0;stroke-opacity:1" />
      <rect
         y="327.36218"
         x="420"
         height="15"
         width="20"
         id="rect4836-8-4-4-9-51"
         style="fill:#ffffff;fill-opacity:1;fill-rule:evenodd;stroke:#808080;stroke-width:1;stroke-linecap:square;stroke-linejoin:miter;stroke-miterlimit:0.30000001;stroke-dasharray:none;stroke-dashoffset:0;stroke-opacity:1" />
      <rect
         y="327.36218"
         x="460"
         height="15"
         width="20"
         id="rect4836-8-4-4-26-1"
         style="fill:#ffffff;fill-opacity:1;fill-rule:evenodd;stroke:#808080;stroke-width:1;stroke-linecap:square;stroke-linejoin:miter;stroke-miterlimit:0.30000001;stroke-dasharray:none;stroke-dashoffset:0;stroke-opacity:1" />
      <rect
         y="327.36218"
         x="180"
         height="15"
         width="20"
         id="rect4836-8-4-4-64-0"
         style="fill:#ffffff;fill-opacity:1;fill-rule:evenodd;stroke:#808080;stroke-width:1;stroke-linecap:square;stroke-linejoin:miter;stroke-miterlimit:0.30000001;stroke-dasharray:none;stroke-dashoffset:0;stroke-opacity:1" />
    </g>
    <g
       transform="matrix(3.146453,0,0,3.146453,-527.88067,-676.15031)"
       id="g5102-8">
      <rect
         y="327.36218"
         x="200"
         height="15"
         width="20"
         id="rect4836-50"
         style="fill:#000000;fill-opacity:1;fill-rule:evenodd;stroke:#808080;stroke-width:1;stroke-linecap:square;stroke-linejoin:miter;stroke-miterlimit:0.30000001;stroke-dasharray:none;stroke-dashoffset:0;stroke-opacity:1" />
      <rect
         y="327.36218"
         x="240"
         height="15"
         width="20"
         id="rect4836-6-6"
         style="fill:#000000;fill-opacity:1;fill-rule:evenodd;stroke:#808080;stroke-width:1;stroke-linecap:square;stroke-linejoin:miter;stroke-miterlimit:0.30000001;stroke-dasharray:none;stroke-dashoffset:0;stroke-opacity:1" />
      <rect
         y="327.36218"
         x="280"
         height="15"
         width="20"
         id="rect4836-8-46"
         style="fill:#000000;fill-opacity:1;fill-rule:evenodd;stroke:#808080;stroke-width:1;stroke-linecap:square;stroke-linejoin:miter;stroke-miterlimit:0.30000001;stroke-dasharray:none;stroke-dashoffset:0;stroke-opacity:1" />
      <rect
         y="327.36218"
         x="320"
         height="15"
         width="20"
         id="rect4836-8-8-2"
         style="fill:#000000;fill-opacity:1;fill-rule:evenodd;stroke:#808080;stroke-width:1;stroke-linecap:square;stroke-linejoin:miter;stroke-miterlimit:0.30000001;stroke-dasharray:none;stroke-dashoffset:0;stroke-opacity:1" />
      <rect
         y="327.36218"
         x="360"
         height="15"
         width="20"
         id="rect4836-8-4-5"
         style="fill:#000000;fill-opacity:1;fill-rule:evenodd;stroke:#808080;stroke-width:1;stroke-linecap:square;stroke-linejoin:miter;stroke-miterlimit:0.30000001;stroke-dasharray:none;stroke-dashoffset:0;stroke-opacity:1" />
      <rect
         y="327.36218"
         x="400"
         height="15"
         width="20"
         id="rect4836-8-4-3-8"
         style="fill:#000000;fill-opacity:1;fill-rule:evenodd;stroke:#808080;stroke-width:1;stroke-linecap:square;stroke-linejoin:miter;stroke-miterlimit:0.30000001;stroke-dasharray:none;stroke-dashoffset:0;stroke-opacity:1" />
      <rect
         y="327.36218"
         x="440"
         height="15"
         width="20"
         id="rect4836-8-4-1-62"
         style="fill:#000000;fill-opacity:1;fill-rule:evenodd;stroke:#808080;stroke-width:1;stroke-linecap:square;stroke-linejoin:miter;stroke-miterlimit:0.30000001;stroke-dasharray:none;stroke-dashoffset:0;stroke-opacity:1" />
      <rect
         y="327.36218"
         x="220"
         height="15"
         width="20"
         id="rect4836-8-4-4-84"
         style="fill:#ffffff;fill-opacity:1;fill-rule:evenodd;stroke:#808080;stroke-width:1;stroke-linecap:square;stroke-linejoin:miter;stroke-miterlimit:0.30000001;stroke-dasharray:none;stroke-dashoffset:0;stroke-opacity:1" />
      <rect
         y="327.36218"
         x="260"
         height="15"
         width="20"
         id="rect4836-8-4-4-2-72"
         style="fill:#ffffff;fill-opacity:1;fill-rule:evenodd;stroke:#808080;stroke-width:1;stroke-linecap:square;stroke-linejoin:miter;stroke-miterlimit:0.30000001;stroke-dasharray:none;stroke-dashoffset:0;stroke-opacity:1" />
      <rect
         y="327.36218"
         x="300"
         height="15"
         width="20"
         id="rect4836-8-4-4-0-4"
         style="fill:#ffffff;fill-opacity:1;fill-rule:evenodd;stroke:#808080;stroke-width:1;stroke-linecap:square;stroke-linejoin:miter;stroke-miterlimit:0.30000001;stroke-dasharray:none;stroke-dashoffset:0;stroke-opacity:1" />
      <rect
         y="327.36218"
         x="340"
         height="15"
         width="20"
         id="rect4836-8-4-4-6-06"
         style="fill:#ffffff;fill-opacity:1;fill-rule:evenodd;stroke:#808080;stroke-width:1;stroke-linecap:square;stroke-linejoin:miter;stroke-miterlimit:0.30000001;stroke-dasharray:none;stroke-dashoffset:0;stroke-opacity:1" />
      <rect
         y="327.36218"
         x="380"
         height="15"
         width="20"
         id="rect4836-8-4-4-8-29"
         style="fill:#ffffff;fill-opacity:1;fill-rule:evenodd;stroke:#808080;stroke-width:1;stroke-linecap:square;stroke-linejoin:miter;stroke-miterlimit:0.30000001;stroke-dasharray:none;stroke-dashoffset:0;stroke-opacity:1" />
      <rect
         y="327.36218"
         x="420"
         height="15"
         width="20"
         id="rect4836-8-4-4-9-90"
         style="fill:#ffffff;fill-opacity:1;fill-rule:evenodd;stroke:#808080;stroke-width:1;stroke-linecap:square;stroke-linejoin:miter;stroke-miterlimit:0.30000001;stroke-dasharray:none;stroke-dashoffset:0;stroke-opacity:1" />
      <rect
         y="327.36218"
         x="460"
         height="15"
         width="20"
         id="rect4836-8-4-4-26-8"
         style="fill:#ffffff;fill-opacity:1;fill-rule:evenodd;stroke:#808080;stroke-width:1;stroke-linecap:square;stroke-linejoin:miter;stroke-miterlimit:0.30000001;stroke-dasharray:none;stroke-dashoffset:0;stroke-opacity:1" />
      <rect
         y="327.36218"
         x="180"
         height="15"
         width="20"
         id="rect4836-8-4-4-64-13"
         style="fill:#ffffff;fill-opacity:1;fill-rule:evenodd;stroke:#808080;stroke-width:1;stroke-linecap:square;stroke-linejoin:miter;stroke-miterlimit:0.30000001;stroke-dasharray:none;stroke-dashoffset:0;stroke-opacity:1" />
    </g>
    <g
       style="font-style:normal;font-variant:normal;font-weight:normal;font-stretch:normal;font-size:146.75300598px;line-height:125%;font-family:'Liberation Sans';-inkscape-font-specification:'Liberation Sans';text-align:start;letter-spacing:0px;word-spacing:0px;writing-mode:lr-tb;text-anchor:start;fill:#000000;fill-opacity:1;stroke:none"
       id="text5514-2">
      <path
         inkscape:connector-curvature="0"
         d="m 126.85675,906.8236 0,-28.73435 -23.64672,0 0,-11.89502 37.97807,0 0,45.93197 q -8.38384,5.94751 -18.48744,9.02875 -10.1036,3.00958 -21.56868,3.00958 -25.079855,0 -39.26789,-14.61797 -14.116378,-14.68963 -14.116378,-40.84435 0,-26.22636 14.116378,-40.84434 14.188035,-14.68963 39.26789,-14.68963 10.46189,0 19.84892,2.57964 9.45869,2.57965 17.41259,7.59562 l 0,15.4062 q -8.02556,-6.80739 -17.0543,-10.24692 -9.02875,-3.43952 -18.98904,-3.43952 -19.633948,0 -29.522578,10.96348 -9.816974,10.96348 -9.816974,32.67547 0,21.64034 9.816974,32.60382 9.88863,10.96348 29.522578,10.96348 7.66727,0 13.68644,-1.28982 6.01916,-1.36148 10.82016,-4.15609 z"
         style="font-style:normal;font-variant:normal;font-weight:normal;font-stretch:normal;font-family:Pothana2000;-inkscape-font-specification:Pothana2000"
         id="path4624" />
      <path
         inkscape:connector-curvature="0"
         d="m 167.7011,815.10297 19.49063,0 47.43677,89.49927 0,-89.49927 14.04472,0 0,106.98352 -19.49064,0 -47.43676,-89.49927 0,89.49927 -14.04472,0 0,-106.98352 z"
         style="font-style:normal;font-variant:normal;font-weight:normal;font-stretch:normal;font-family:Pothana2000;-inkscape-font-specification:Pothana2000"
         id="path4626" />
      <path
         inkscape:connector-curvature="0"
         d="m 275.83112,815.10297 14.54632,0 0,64.99267 q 0,17.19761 6.23413,24.79323 6.23414,7.52396 20.2072,7.52396 13.90141,0 20.13555,-7.52396 6.23413,-7.59562 6.23413,-24.79323 l 0,-64.99267 14.54632,0 0,66.78409 q 0,20.92376 -10.39022,31.60062 -10.31858,10.67685 -30.52578,10.67685 -20.27885,0 -30.66908,-10.67685 -10.31857,-10.67686 -10.31857,-31.60062 l 0,-66.78409 z"
         style="font-style:normal;font-variant:normal;font-weight:normal;font-stretch:normal;font-family:Pothana2000;-inkscape-font-specification:Pothana2000"
         id="path4628" />
      <path
         inkscape:connector-curvature="0"
         d="m 408.5394,910.47809 0,42.13417 -25.65312,0 0,-110.78132 25.65312,0 0,11.7517 q 5.3026,-7.02236 11.7517,-10.31857 6.44911,-3.36787 14.83295,-3.36787 14.83294,0 24.36329,11.82337 9.53035,11.7517 9.53035,30.3108 0,18.55909 -9.53035,30.38246 -9.53035,11.7517 -24.36329,11.7517 -8.38384,0 -14.83295,-3.29621 -6.4491,-3.36786 -11.7517,-10.39023 z m 17.0543,-51.95113 q -8.24052,0 -12.68324,6.09082 -4.37106,6.01917 -4.37106,17.41259 0,11.39342 4.37106,17.48424 4.44272,6.01917 12.68324,6.01917 8.24053,0 12.53993,-6.01917 4.37106,-6.01916 4.37106,-17.48424 0,-11.46508 -4.37106,-17.48425 -4.2994,-6.01916 -12.53993,-6.01916 z"
         style="font-weight:bold"
         id="path4630" />
      <path
         inkscape:connector-curvature="0"
         d="m 524.05008,885.97149 q -8.02556,0 -12.10999,2.72296 -4.01278,2.72295 -4.01278,8.02555 0,4.87266 3.22455,7.66727 3.29621,2.72296 9.10041,2.72296 7.23733,0 12.18165,-5.15929 4.94431,-5.23094 4.94431,-13.04152 l 0,-2.93793 -13.32815,0 z m 39.19623,-9.67366 0,45.78866 -25.86808,0 0,-11.89502 q -5.15928,7.30899 -11.60839,10.67685 -6.44911,3.29621 -15.69283,3.29621 -12.46827,0 -20.27886,-7.23733 -7.73892,-7.30899 -7.73892,-18.91738 0,-14.11638 9.67366,-20.7088 9.74531,-6.59242 30.52577,-6.59242 l 15.11957,0 0,-2.00639 q 0,-6.09082 -4.801,-8.88543 -4.801,-2.86627 -14.97626,-2.86627 -8.24053,0 -15.33454,1.6481 -7.09402,1.64811 -13.18484,4.94432 l 0,-19.56229 q 8.24052,-2.00639 16.5527,-3.00958 8.31219,-1.07486 16.62437,-1.07486 21.71199,0 31.31399,8.59881 9.67366,8.52716 9.67366,27.80282 z"
         style="font-weight:bold"
         id="path4632" />
      <path
         inkscape:connector-curvature="0"
         d="m 646.86974,863.68624 q -3.36786,-1.57645 -6.73573,-2.29301 -3.29621,-0.78823 -6.66408,-0.78823 -9.88863,0 -15.26288,6.37745 -5.3026,6.3058 -5.3026,18.12916 l 0,36.97488 -25.65311,0 0,-80.25555 25.65311,0 0,13.18484 q 4.94431,-7.88224 11.32176,-11.46508 6.44911,-3.6545 15.4062,-3.6545 1.28982,0 2.79462,0.14332 1.50479,0.0716 4.37106,0.42994 l 0.0716,23.21678 z"
         style="font-weight:bold"
         id="path4634" />
      <path
         inkscape:connector-curvature="0"
         d="m 695.73962,885.97149 q -8.02555,0 -12.10999,2.72296 -4.01278,2.72295 -4.01278,8.02555 0,4.87266 3.22456,7.66727 3.29621,2.72296 9.1004,2.72296 7.23734,0 12.18165,-5.15929 4.94432,-5.23094 4.94432,-13.04152 l 0,-2.93793 -13.32816,0 z m 39.19624,-9.67366 0,45.78866 -25.86808,0 0,-11.89502 q -5.15929,7.30899 -11.6084,10.67685 -6.4491,3.29621 -15.69282,3.29621 -12.46828,0 -20.27886,-7.23733 -7.73893,-7.30899 -7.73893,-18.91738 0,-14.11638 9.67366,-20.7088 9.74532,-6.59242 30.52577,-6.59242 l 15.11958,0 0,-2.00639 q 0,-6.09082 -4.80101,-8.88543 -4.801,-2.86627 -14.97626,-2.86627 -8.24052,0 -15.33454,1.6481 -7.09402,1.64811 -13.18484,4.94432 l 0,-19.56229 q 8.24053,-2.00639 16.55271,-3.00958 8.31218,-1.07486 16.62436,-1.07486 21.712,0 31.314,8.59881 9.67366,8.52716 9.67366,27.80282 z"
         style="font-weight:bold"
         id="path4636" />
      <path
         inkscape:connector-curvature="0"
         d="m 772.7706,810.5886 25.79643,0 -21.71199,111.49789 -25.72477,0 21.64033,-111.49789 z"
         style="font-style:italic;font-weight:bold"
         id="path4638" />
      <path
         inkscape:connector-curvature="0"
         d="m 823.21695,810.5886 25.79643,0 -21.71199,111.49789 -25.72477,0 21.64033,-111.49789 z"
         style="font-style:italic;font-weight:bold"
         id="path4640" />
      <path
         inkscape:connector-curvature="0"
         d="m 939.94579,881.74374 0,7.30899 -59.9767,0 q 0.93154,9.02875 6.52077,13.54312 5.58922,4.51438 15.62117,4.51438 8.09721,0 16.5527,-2.36467 8.52716,-2.43633 17.48425,-7.30899 l 0,19.77726 q -9.10041,3.43952 -18.20081,5.15928 -9.10041,1.79142 -18.20081,1.79142 -21.78365,0 -33.89364,-11.03514 -12.03834,-11.10679 -12.03834,-31.09902 0,-19.63395 11.82337,-30.88406 11.89502,-11.25011 32.67547,-11.25011 18.91738,0 30.23914,11.39343 11.39343,11.39342 11.39343,30.45411 z m -26.36968,-8.52715 q 0,-7.30899 -4.29941,-11.75171 -4.22775,-4.51437 -11.10679,-4.51437 -7.4523,0 -12.10999,4.22775 -4.65769,4.15609 -5.8042,12.03833 l 33.32039,0 z"
         style="font-weight:bold"
         id="path4642" />
      <path
         inkscape:connector-curvature="0"
         d="m 959.29314,810.5886 25.65312,0 0,111.49789 -25.65312,0 0,-111.49789 z"
         style="font-weight:bold"
         id="path4644" />
    </g>
    <text
       xml:space="preserve"
       style="font-style:normal;font-variant:normal;font-weight:normal;font-stretch:normal;font-size:16px;line-height:125%;font-family:'Liberation Sans';-inkscape-font-specification:'Liberation Sans';text-align:start;letter-spacing:0px;word-spacing:0px;writing-mode:lr-tb;text-anchor:start;fill:#000000;fill-opacity:1;stroke:none"
       x="179.64285"
       y="372.36218"
       id="text5552"
       sodipodi:linespacing="125%"><tspan
         sodipodi:role="line"
         id="tspan5554"
         x="179.64285"
         y="372.36218" /></text>
  </g>
</svg>
